2021-07-16 13:27:35||create||input={"order_id":1626416854,"product_name":"Test Payment","service_id":"21680742116712639","channel_type":"API","cust_id":"c08172221839","amount":1,"currency":"THB","ref_1":"Reference1","form_type":"SEAMLESS","is_remember":false,"3ds":{"3ds_required":true,"3ds_url_success":"https:\/\/nextere.space\/","3ds_url_fail":"https:\/\/nextere.space\/"}} 
2021-07-16 13:27:35||create||output={"error_code":"CHANNEL_NOT_FOUND","error":"Channel not found in service.","cause":null,"timestamp":"2021-07-16T13:28:04.731","context_path":"[POST] /v1/cc/txns/payment_order","service":"service-txn-gateway:1.7.510","trace_id":"36f13afe77b2b13289e4a7bb4e29aee2"} 
2021-07-16 13:31:16||create||input={"order_id":1626417071,"product_name":"Test Payment","service_id":"21680742116712639","channel_type":"WEBSITE","cust_id":"c08172221839","amount":1,"currency":"THB","ref_1":"Reference1","form_type":"SEAMLESS","is_remember":false,"3ds":{"3ds_required":true,"3ds_url_success":"https:\/\/nextere.space\/","3ds_url_fail":"https:\/\/nextere.space\/"}} 
2021-07-16 13:31:16||create||output={"status":"PENDING","currency":"THB","amount":1.0,"order_id":"1626417071","txn_id":"T2119713314592080519","txn_token":"25d6c44e8fd34b7a8935f5d3a3743f6f","status_message":"Success","cust_id":"c08172221839","amount_net":1.0,"amount_cust_fee":0.0,"created_at":"2021-07-16 13:31:45","3ds":{"3ds_required":true}} 
2021-07-16 13:34:31||create||input={"order_id":1626417267,"product_name":"Test Payment","service_id":"21680742116712639","channel_type":"API","cust_id":"c08172221839","amount":1,"currency":"THB","ref_1":"Reference1","form_type":"SEAMLESS","is_remember":false,"3ds":{"3ds_required":true,"3ds_url_success":"https:\/\/nextere.space\/","3ds_url_fail":"https:\/\/nextere.space\/"}} 
2021-07-16 13:34:31||create||output={"error_code":"CHANNEL_NOT_FOUND","error":"Channel not found in service.","cause":null,"timestamp":"2021-07-16T13:35:00.893","context_path":"[POST] /v1/cc/txns/payment_order","service":"service-txn-gateway:1.7.510","trace_id":"6ce54835b523509e5bcfe567e6d47e92"} 
2021-07-16 13:39:14||create||input={"order_id":1626417549,"product_name":"Test Payment","service_id":"21680742116712639","channel_type":"WEBSITE","cust_id":"c08172221839","amount":1,"currency":"THB","ref_1":"Reference1","form_type":"SEAMLESS","is_remember":false,"3ds":{"3ds_required":true,"3ds_url_success":"https:\/\/nextere.space\/","3ds_url_fail":"https:\/\/nextere.space\/"}} 
2021-07-16 13:39:14||create||output={"status":"PENDING","currency":"THB","amount":1.0,"order_id":"1626417549","txn_id":"T2119713394438587805","txn_token":"2ddc39f2588641199f65236203b889ab","status_message":"Success","cust_id":"c08172221839","amount_net":1.0,"amount_cust_fee":0.0,"created_at":"2021-07-16 13:39:44","3ds":{"3ds_required":true}} 
2021-07-16 13:49:48||create||input={"order_id":1626418187,"product_name":"Test Payment","service_id":"21680742116712639","channel_type":"API","cust_id":"c08172221839","amount":1,"currency":"THB","ref_1":"Reference1","form_type":"SEAMLESS","is_remember":false,"3ds":{"3ds_required":true,"3ds_url_success":"https:\/\/nextere.space\/","3ds_url_fail":"https:\/\/nextere.space\/"}} 
2021-07-16 13:49:48||create||output={"error_code":"CHANNEL_NOT_FOUND","error":"Channel not found in service.","cause":null,"timestamp":"2021-07-16T13:50:18.601","context_path":"[POST] /v1/cc/txns/payment_order","service":"service-txn-gateway:1.7.510","trace_id":"73af8cec5d6f783eeefdceac31a4fa6d"} 
2021-07-16 14:48:42||create||input={"order_id":1626421716,"product_name":"Test Payment","service_id":"21680742116712639","channel_type":"API","cust_id":"c08172221839","amount":1,"currency":"THB","ref_1":"Reference1","form_type":"FORM","is_remember":false,"3ds":{"3ds_required":true,"3ds_url_success":"https:\/\/nextere.space\/","3ds_url_fail":"https:\/\/nextere.space\/"}} 
2021-07-16 14:48:42||create||output={"error_code":"CHANNEL_NOT_FOUND","error":"Channel not found in service.","cause":null,"timestamp":"2021-07-16T14:49:12.502","context_path":"[POST] /v1/cc/txns/payment_order","service":"service-txn-gateway:1.7.510","trace_id":"a5bf6867edf6e6398a239a3820bf3a06"} 
2021-07-16 14:49:07||create||input={"order_id":1626421745,"product_name":"Test Payment","service_id":"21680742116712639","channel_type":"WEBSITE","cust_id":"c08172221839","amount":1,"currency":"THB","ref_1":"Reference1","form_type":"FORM","is_remember":false,"3ds":{"3ds_required":true,"3ds_url_success":"https:\/\/nextere.space\/","3ds_url_fail":"https:\/\/nextere.space\/"}} 
2021-07-16 14:49:07||create||output={"status":"PENDING","currency":"THB","amount":1.0,"order_id":"1626421745","txn_id":"T2119714493741180163","txn_token":"394f384649c34a2a9abd4105bcabd116","status_message":"Success","cust_id":"c08172221839","amount_net":1.0,"amount_cust_fee":0.0,"created_at":"2021-07-16 14:49:37","form_url":"https://staging-payweb.ais.co.th:8443/template_whitelabel/#/init?token=394f384649c34a2a9abd4105bcabd116&channelName=SuperDuperCWDC","3ds":{"3ds_required":true}} 
