2021-09-23 18:49:38||create||input={"order_id":"20210923184931","product_name":"Nextere Payment","service_id":"21680742116712639","channel_type":"WEBSITE","cust_id":"C1632397771","amount":"17490","currency":"THB","ref_1":"Reference1","form_type":"FORM","is_remember":false,"3ds":{"3ds_required":true,"3ds_url_success":"https:\/\/www.nextere.space\/Product\/Bill","3ds_url_fail":"https:\/\/www.nextere.space\/Product\/Bill_fail"}} 
2021-09-23 18:49:38||create||output={"status":"PENDING","currency":"THB","amount":17490.0,"order_id":"20210923184931","txn_id":"T2126618520173956483","txn_token":"ac3a9d5a2fad471fa45ccb11d24568f9","status_message":"Success","cust_id":"C1632397771","amount_net":17490.0,"amount_cust_fee":0.0,"created_at":"2021-09-23 18:52:01","form_url":"https://staging-payweb.ais.co.th:8443/template_whitelabel/#/init?token=ac3a9d5a2fad471fa45ccb11d24568f9&channelName=SuperDuperCWDC","3ds":{"3ds_required":true}} 
2021-09-23 18:49:39||create||input={"order_id":"20210923184938","product_name":"Nextere Payment","service_id":"21680742116712639","channel_type":"WEBSITE","cust_id":"C1632397778","amount":"17490","currency":"THB","ref_1":"Reference1","form_type":"FORM","is_remember":false,"3ds":{"3ds_required":true,"3ds_url_success":"https:\/\/www.nextere.space\/Product\/Bill","3ds_url_fail":"https:\/\/www.nextere.space\/Product\/Bill_fail"}} 
2021-09-23 18:49:39||create||output={"status":"PENDING","currency":"THB","amount":17490.0,"order_id":"20210923184938","txn_id":"T2126618520498325172","txn_token":"a10c86e026724311b7c0958142ac27e5","status_message":"Success","cust_id":"C1632397778","amount_net":17490.0,"amount_cust_fee":0.0,"created_at":"2021-09-23 18:52:05","form_url":"https://staging-payweb.ais.co.th:8443/template_whitelabel/#/init?token=a10c86e026724311b7c0958142ac27e5&channelName=SuperDuperCWDC","3ds":{"3ds_required":true}} 
