2021-10-15 00:05:42||create||input={"order_id":"20211015000540","product_name":"Nextere Payment","service_id":"21680742116712639","channel_type":"WEBSITE","cust_id":"C1634231140","amount":"12217","currency":"THB","ref_1":"Reference1","form_type":"FORM","is_remember":false,"3ds":{"3ds_required":true,"3ds_url_success":"https:\/\/www.nextere.space\/Product\/Bill","3ds_url_fail":"https:\/\/www.nextere.space\/Product\/Bill_fail"}} 
2021-10-15 00:05:42||create||output={"status":"PENDING","currency":"THB","amount":12217.0,"order_id":"20211015000540","txn_id":"T2128800084225014290","txn_token":"e9764af4ed904c9aa75fc4223be46ef1","status_message":"Success","cust_id":"C1634231140","amount_net":12217.0,"amount_cust_fee":0.0,"created_at":"2021-10-15 00:08:42","form_url":"https://staging-payweb.ais.co.th:8443/template_whitelabel/#/init?token=e9764af4ed904c9aa75fc4223be46ef1&channelName=SuperDuperCWDC","3ds":{"3ds_required":true}} 
2021-10-15 00:06:18||hook||respone={"txn_id":"T2128800084225014290","txn_type":"PAYMENT","status":"SUCCESS","status_code":"I0000","status_message":"Success","order_id":"20211015000540","cust_id":"C1634231140","service_id":"21680742116712639","channel_type":"WEBSITE","amount":12217.0,"amount_net":12217.0,"currency":"THB","ref_1":"Reference1","card":{"card_ref":"f98412241501480184d35ae36ca61454","card_no":"439137XXXXXX1251","card_type":"VISA","card_expire":"05/2025"},"rmb_flag":"N","sof_txn_id":"1059966","created_at":"212880010300008","success_at":"2021-10-14T17:09:19.217Z","sof_type":"SOF_CC"} 
2021-10-15 00:45:59||create||input={"order_id":"20211015004556","product_name":"Nextere Payment","service_id":"21680742116712639","channel_type":"WEBSITE","cust_id":"C1634233556","amount":"17490","currency":"THB","ref_1":"Reference1","form_type":"FORM","is_remember":false,"3ds":{"3ds_required":true,"3ds_url_success":"https:\/\/www.nextere.space\/Product\/Bill","3ds_url_fail":"https:\/\/www.nextere.space\/Product\/Bill_fail"}} 
2021-10-15 00:45:59||create||output={"status":"PENDING","currency":"THB","amount":17490.0,"order_id":"20211015004556","txn_id":"T2128800485915610994","txn_token":"078416a4f28844ee85900691c0efb5f8","status_message":"Success","cust_id":"C1634233556","amount_net":17490.0,"amount_cust_fee":0.0,"created_at":"2021-10-15 00:48:59","form_url":"https://staging-payweb.ais.co.th:8443/template_whitelabel/#/init?token=078416a4f28844ee85900691c0efb5f8&channelName=SuperDuperCWDC","3ds":{"3ds_required":true}} 
2021-10-15 14:07:15||create||input={"order_id":"20211015140714","product_name":"Nextere Payment","service_id":"21680742116712639","channel_type":"WEBSITE","cust_id":"C1634281634","amount":"11869","currency":"THB","ref_1":"Reference1","form_type":"FORM","is_remember":false,"3ds":{"3ds_required":true,"3ds_url_success":"https:\/\/www.nextere.space\/Product\/Bill","3ds_url_fail":"https:\/\/www.nextere.space\/Product\/Bill_fail"}} 
2021-10-15 14:07:15||create||output={"status":"PENDING","currency":"THB","amount":11869.0,"order_id":"20211015140714","txn_id":"T2128814101730618687","txn_token":"96ddc2970e7546cdb8b61d33f875b78b","status_message":"Success","cust_id":"C1634281634","amount_net":11869.0,"amount_cust_fee":0.0,"created_at":"2021-10-15 14:10:17","form_url":"https://staging-payweb.ais.co.th:8443/template_whitelabel/#/init?token=96ddc2970e7546cdb8b61d33f875b78b&channelName=SuperDuperCWDC","3ds":{"3ds_required":true}} 
2021-10-15 14:07:16||create||input={"order_id":"20211015140715","product_name":"Nextere Payment","service_id":"21680742116712639","channel_type":"WEBSITE","cust_id":"C1634281635","amount":"11869","currency":"THB","ref_1":"Reference1","form_type":"FORM","is_remember":false,"3ds":{"3ds_required":true,"3ds_url_success":"https:\/\/www.nextere.space\/Product\/Bill","3ds_url_fail":"https:\/\/www.nextere.space\/Product\/Bill_fail"}} 
2021-10-15 14:07:16||create||output={"status":"PENDING","currency":"THB","amount":11869.0,"order_id":"20211015140715","txn_id":"T2128814101872916887","txn_token":"83141fb8964d49eda81d24c392356cbb","status_message":"Success","cust_id":"C1634281635","amount_net":11869.0,"amount_cust_fee":0.0,"created_at":"2021-10-15 14:10:18","form_url":"https://staging-payweb.ais.co.th:8443/template_whitelabel/#/init?token=83141fb8964d49eda81d24c392356cbb&channelName=SuperDuperCWDC","3ds":{"3ds_required":true}} 
2021-10-15 14:07:18||create||input={"order_id":"20211015140717","product_name":"Nextere Payment","service_id":"21680742116712639","channel_type":"WEBSITE","cust_id":"C1634281637","amount":"11869","currency":"THB","ref_1":"Reference1","form_type":"FORM","is_remember":false,"3ds":{"3ds_required":true,"3ds_url_success":"https:\/\/www.nextere.space\/Product\/Bill","3ds_url_fail":"https:\/\/www.nextere.space\/Product\/Bill_fail"}} 
2021-10-15 14:07:18||create||output={"status":"PENDING","currency":"THB","amount":11869.0,"order_id":"20211015140717","txn_id":"T2128814101989756939","txn_token":"e4ec6303d21c4549b1fe48f1d8e66165","status_message":"Success","cust_id":"C1634281637","amount_net":11869.0,"amount_cust_fee":0.0,"created_at":"2021-10-15 14:10:19","form_url":"https://staging-payweb.ais.co.th:8443/template_whitelabel/#/init?token=e4ec6303d21c4549b1fe48f1d8e66165&channelName=SuperDuperCWDC","3ds":{"3ds_required":true}} 
2021-10-15 14:07:19||create||input={"order_id":"20211015140718","product_name":"Nextere Payment","service_id":"21680742116712639","channel_type":"WEBSITE","cust_id":"C1634281638","amount":"11869","currency":"THB","ref_1":"Reference1","form_type":"FORM","is_remember":false,"3ds":{"3ds_required":true,"3ds_url_success":"https:\/\/www.nextere.space\/Product\/Bill","3ds_url_fail":"https:\/\/www.nextere.space\/Product\/Bill_fail"}} 
2021-10-15 14:07:19||create||output={"status":"PENDING","currency":"THB","amount":11869.0,"order_id":"20211015140718","txn_id":"T2128814102105323262","txn_token":"6c75477a2ca24fc686a2b956a6a606a8","status_message":"Success","cust_id":"C1634281638","amount_net":11869.0,"amount_cust_fee":0.0,"created_at":"2021-10-15 14:10:21","form_url":"https://staging-payweb.ais.co.th:8443/template_whitelabel/#/init?token=6c75477a2ca24fc686a2b956a6a606a8&channelName=SuperDuperCWDC","3ds":{"3ds_required":true}} 
2021-10-15 14:07:20||create||input={"order_id":"20211015140719","product_name":"Nextere Payment","service_id":"21680742116712639","channel_type":"WEBSITE","cust_id":"C1634281639","amount":"11869","currency":"THB","ref_1":"Reference1","form_type":"FORM","is_remember":false,"3ds":{"3ds_required":true,"3ds_url_success":"https:\/\/www.nextere.space\/Product\/Bill","3ds_url_fail":"https:\/\/www.nextere.space\/Product\/Bill_fail"}} 
2021-10-15 14:07:20||create||output={"status":"PENDING","currency":"THB","amount":11869.0,"order_id":"20211015140719","txn_id":"T2128814102222727606","txn_token":"e30acc3926e74b27b37392c87555f3af","status_message":"Success","cust_id":"C1634281639","amount_net":11869.0,"amount_cust_fee":0.0,"created_at":"2021-10-15 14:10:22","form_url":"https://staging-payweb.ais.co.th:8443/template_whitelabel/#/init?token=e30acc3926e74b27b37392c87555f3af&channelName=SuperDuperCWDC","3ds":{"3ds_required":true}} 
