2021-08-13 12:51:28||create||input={"order_id":1628833881,"product_name":"Nextere Payment","service_id":"21680742116712639","channel_type":"WEBSITE","cust_id":"C1628833881","amount":"2","currency":"THB","ref_1":"Reference1","form_type":"FORM","is_remember":false,"3ds":{"3ds_required":true,"3ds_url_success":"https:\/\/www.nextere.space\/api_area\/Payment\/paidresult","3ds_url_fail":"https:\/\/www.nextere.space\/api_area\/Payment\/paidresult"}} 
2021-08-13 12:51:28||create||output={"status":"PENDING","currency":"THB","amount":2.0,"order_id":"1628833881","txn_id":"T2122512524465879264","txn_token":"b84937a378e647eb8dab57872ec36bc4","status_message":"Success","cust_id":"C1628833881","amount_net":2.0,"amount_cust_fee":0.0,"created_at":"2021-08-13 12:52:44","form_url":"https://staging-payweb.ais.co.th:8443/template_whitelabel/#/init?token=b84937a378e647eb8dab57872ec36bc4&channelName=SuperDuperCWDC","3ds":{"3ds_required":true}} 
2021-08-13 13:00:44||create||input={"order_id":1628834436,"product_name":"Nextere Payment","service_id":"21680742116712639","channel_type":"WEBSITE","cust_id":"C1628834436","amount":"2","currency":"THB","ref_1":"Reference1","form_type":"FORM","is_remember":false,"3ds":{"3ds_required":true,"3ds_url_success":"https:\/\/www.nextere.space\/api_area\/Payment\/paidresult","3ds_url_fail":"https:\/\/www.nextere.space\/api_area\/Payment\/paidresult"}} 
2021-08-13 13:00:44||create||output={"status":"PENDING","currency":"THB","amount":2.0,"order_id":"1628834436","txn_id":"T2122513020066518728","txn_token":"7d327c4ec8e34e549918c6089f1b9b51","status_message":"Success","cust_id":"C1628834436","amount_net":2.0,"amount_cust_fee":0.0,"created_at":"2021-08-13 13:02:00","form_url":"https://staging-payweb.ais.co.th:8443/template_whitelabel/#/init?token=7d327c4ec8e34e549918c6089f1b9b51&channelName=SuperDuperCWDC","3ds":{"3ds_required":true}} 
2021-08-13 13:03:41||create||input={"order_id":1628834612,"product_name":"Nextere Payment","service_id":"21680742116712639","channel_type":"WEBSITE","cust_id":"C1628834612","amount":"2","currency":"THB","ref_1":"Reference1","form_type":"FORM","is_remember":false,"3ds":{"3ds_required":true,"3ds_url_success":"https:\/\/www.nextere.space\/api_area\/Payment\/paidresult","3ds_url_fail":"https:\/\/www.nextere.space\/api_area\/Payment\/paidresult"}} 
2021-08-13 13:03:41||create||output={"status":"PENDING","currency":"THB","amount":2.0,"order_id":"1628834612","txn_id":"T2122513045747515249","txn_token":"62cf746c213845ab91989aaa7a300be2","status_message":"Success","cust_id":"C1628834612","amount_net":2.0,"amount_cust_fee":0.0,"created_at":"2021-08-13 13:04:57","form_url":"https://staging-payweb.ais.co.th:8443/template_whitelabel/#/init?token=62cf746c213845ab91989aaa7a300be2&channelName=SuperDuperCWDC","3ds":{"3ds_required":true}} 
2021-08-13 13:03:58||create||input={"order_id":1628834638,"product_name":"Nextere Payment","service_id":"21680742116712639","channel_type":"WEBSITE","cust_id":"C1628834638","amount":"2","currency":"THB","ref_1":"Reference1","form_type":"FORM","is_remember":false,"3ds":{"3ds_required":true,"3ds_url_success":"https:\/\/www.nextere.space\/api_area\/Payment\/paidresult","3ds_url_fail":"https:\/\/www.nextere.space\/api_area\/Payment\/paidresult"}} 
2021-08-13 13:03:58||create||output={"status":"PENDING","currency":"THB","amount":2.0,"order_id":"1628834638","txn_id":"T2122513051496928499","txn_token":"baa37f4f5d1349608abdadb2748e5cf0","status_message":"Success","cust_id":"C1628834638","amount_net":2.0,"amount_cust_fee":0.0,"created_at":"2021-08-13 13:05:14","form_url":"https://staging-payweb.ais.co.th:8443/template_whitelabel/#/init?token=baa37f4f5d1349608abdadb2748e5cf0&channelName=SuperDuperCWDC","3ds":{"3ds_required":true}} 
2021-08-13 13:12:10||create||input={"order_id":1628835124,"product_name":"Nextere Payment","service_id":"21680742116712639","channel_type":"WEBSITE","cust_id":"C1628835124","amount":"5","currency":"THB","ref_1":"Reference1","form_type":"FORM","is_remember":false,"3ds":{"3ds_required":true,"3ds_url_success":"https:\/\/www.nextere.space\/api_area\/Payment\/paidresult","3ds_url_fail":"https:\/\/www.nextere.space\/api_area\/Payment\/paidresult"}} 
2021-08-13 13:12:10||create||output={"status":"PENDING","currency":"THB","amount":5.0,"order_id":"1628835124","txn_id":"T2122513132691023607","txn_token":"9b9d276d33164cba991351d046c44050","status_message":"Success","cust_id":"C1628835124","amount_net":5.0,"amount_cust_fee":0.0,"created_at":"2021-08-13 13:13:26","form_url":"https://staging-payweb.ais.co.th:8443/template_whitelabel/#/init?token=9b9d276d33164cba991351d046c44050&channelName=SuperDuperCWDC","3ds":{"3ds_required":true}} 
 
2021-08-13 13:17:23||create||input={"order_id":1628835442,"product_name":"Nextere Payment","service_id":"21680742116712639","channel_type":"WEBSITE","cust_id":"C1628835442","amount":"5","currency":"THB","ref_1":"Reference1","form_type":"FORM","is_remember":false,"3ds":{"3ds_required":true,"3ds_url_success":"https:\/\/www.nextere.space\/api_area\/Payment\/paidresult","3ds_url_fail":"https:\/\/www.nextere.space\/api_area\/Payment\/paidresult"}} 
2021-08-13 13:17:23||create||output={"status":"PENDING","currency":"THB","amount":5.0,"order_id":"1628835442","txn_id":"T2122513183928732852","txn_token":"5f2d9592171544eabe15b60412ac266e","status_message":"Success","cust_id":"C1628835442","amount_net":5.0,"amount_cust_fee":0.0,"created_at":"2021-08-13 13:18:39","form_url":"https://staging-payweb.ais.co.th:8443/template_whitelabel/#/init?token=5f2d9592171544eabe15b60412ac266e&channelName=SuperDuperCWDC","3ds":{"3ds_required":true}} 
 
 
2021-08-13 13:19:01||create||input={"order_id":1628835540,"product_name":"Nextere Payment","service_id":"21680742116712639","channel_type":"WEBSITE","cust_id":"C1628835540","amount":"5","currency":"THB","ref_1":"Reference1","form_type":"FORM","is_remember":false,"3ds":{"3ds_required":true,"3ds_url_success":"https:\/\/www.nextere.space\/api_area\/Payment\/paidresult","3ds_url_fail":"https:\/\/www.nextere.space\/api_area\/Payment\/paidresult"}} 
2021-08-13 13:19:01||create||output={"status":"PENDING","currency":"THB","amount":5.0,"order_id":"1628835540","txn_id":"T2122513201817219840","txn_token":"04577f604d8e4dc2b83bf6f203093c0f","status_message":"Success","cust_id":"C1628835540","amount_net":5.0,"amount_cust_fee":0.0,"created_at":"2021-08-13 13:20:18","form_url":"https://staging-payweb.ais.co.th:8443/template_whitelabel/#/init?token=04577f604d8e4dc2b83bf6f203093c0f&channelName=SuperDuperCWDC","3ds":{"3ds_required":true}} 
 
 
 
 
 
 
 
 
 
 
 
2021-08-13 13:25:57||create||input={"order_id":1628835953,"product_name":"Nextere Payment","service_id":"21680742116712639","channel_type":"WEBSITE","cust_id":"C1628835953","amount":"10","currency":"THB","ref_1":"Reference1","form_type":"FORM","is_remember":false,"3ds":{"3ds_required":true,"3ds_url_success":"https:\/\/www.nextere.space\/api_area\/Payment\/paidresult","3ds_url_fail":"https:\/\/www.nextere.space\/api_area\/Payment\/paidresult"}} 
2021-08-13 13:25:57||create||output={"status":"PENDING","currency":"THB","amount":10.0,"order_id":"1628835953","txn_id":"T2122513271348926844","txn_token":"8990edd2e2ba49a387b8bddd23c38ad1","status_message":"Success","cust_id":"C1628835953","amount_net":10.0,"amount_cust_fee":0.0,"created_at":"2021-08-13 13:27:13","form_url":"https://staging-payweb.ais.co.th:8443/template_whitelabel/#/init?token=8990edd2e2ba49a387b8bddd23c38ad1&channelName=SuperDuperCWDC","3ds":{"3ds_required":true}} 
 
 
 
 
 
 
 
 
 
 
 
 
 
 
 
 
 
 
 
 
 
 
 
2021-08-13 14:53:55||create||input={"order_id":1628841225,"product_name":"Nextere Payment","service_id":"21680742116712639","channel_type":"WEBSITE","cust_id":"C1628841225","amount":"10","currency":"THB","ref_1":"Reference1","form_type":"FORM","is_remember":false,"3ds":{"3ds_required":true,"3ds_url_success":"https:\/\/www.nextere.space\/api_area\/Payment\/paidresult","3ds_url_fail":"https:\/\/www.nextere.space\/api_area\/Payment\/paidresult"}} 
2021-08-13 14:53:55||create||output={"status":"PENDING","currency":"THB","amount":10.0,"order_id":"1628841225","txn_id":"T2122514551203427702","txn_token":"70966cff117141109effc6f1ae62893b","status_message":"Success","cust_id":"C1628841225","amount_net":10.0,"amount_cust_fee":0.0,"created_at":"2021-08-13 14:55:12","form_url":"https://staging-payweb.ais.co.th:8443/template_whitelabel/#/init?token=70966cff117141109effc6f1ae62893b&channelName=SuperDuperCWDC","3ds":{"3ds_required":true}} 
2021-08-13 14:59:07||create||input={"order_id":1628841545,"product_name":"Nextere Payment","service_id":"21680742116712639","channel_type":"WEBSITE","cust_id":"C1628841545","amount":"10","currency":"THB","ref_1":"Reference1","form_type":"FORM","is_remember":false,"3ds":{"3ds_required":true,"3ds_url_success":"https:\/\/www.nextere.space\/api_area\/Payment\/paidresult","3ds_url_fail":"https:\/\/www.nextere.space\/api_area\/Payment\/paidresult"}} 
2021-08-13 14:59:07||create||output={"status":"PENDING","currency":"THB","amount":10.0,"order_id":"1628841545","txn_id":"T2122515002259217403","txn_token":"146297fb525748e3a89e68ebff628493","status_message":"Success","cust_id":"C1628841545","amount_net":10.0,"amount_cust_fee":0.0,"created_at":"2021-08-13 15:00:22","form_url":"https://staging-payweb.ais.co.th:8443/template_whitelabel/#/init?token=146297fb525748e3a89e68ebff628493&channelName=SuperDuperCWDC","3ds":{"3ds_required":true}} 
 
 
