2021-08-02 16:50:45||create||input={"order_id":1627897837,"product_name":"Test Payment","service_id":"21680742116712639","channel_type":"WEBSITE","cust_id":"c08172221839","amount":1,"currency":"THB","ref_1":"Reference1","form_type":"FORM","is_remember":false,"3ds":{"3ds_required":true,"3ds_url_success":"https:\/\/www.nextere.space\/api_area\/Payment\/paidresult","3ds_url_fail":"https:\/\/www.nextere.space\/api_area\/Payment\/paidresult"}} 
2021-08-02 16:50:45||create||output={"status":"PENDING","currency":"THB","amount":1.0,"order_id":"1627897837","txn_id":"T2121416514392781163","txn_token":"5b3191df9a354497a8f9d7b27e5b39a0","status_message":"Success","cust_id":"c08172221839","amount_net":1.0,"amount_cust_fee":0.0,"created_at":"2021-08-02 16:51:43","form_url":"https://staging-payweb.ais.co.th:8443/template_whitelabel/#/init?token=5b3191df9a354497a8f9d7b27e5b39a0&channelName=SuperDuperCWDC","3ds":{"3ds_required":true}} 
2021-08-02 17:02:50||create||input={"order_id":1627898569,"product_name":"Test Payment","service_id":"21680742116712639","channel_type":"WEBSITE","cust_id":"c08172221839","amount":1,"currency":"THB","ref_1":"Reference1","form_type":"FORM","is_remember":false,"3ds":{"3ds_required":true,"3ds_url_success":"https:\/\/www.nextere.space\/api_area\/Payment\/paidresult","3ds_url_fail":"https:\/\/www.nextere.space\/api_area\/Payment\/paidresult"}} 
2021-08-02 17:02:50||create||output={"status":"PENDING","currency":"THB","amount":1.0,"order_id":"1627898569","txn_id":"T2121417034864411483","txn_token":"a3d694c633524cc49f349031697633f4","status_message":"Success","cust_id":"c08172221839","amount_net":1.0,"amount_cust_fee":0.0,"created_at":"2021-08-02 17:03:48","form_url":"https://staging-payweb.ais.co.th:8443/template_whitelabel/#/init?token=a3d694c633524cc49f349031697633f4&channelName=SuperDuperCWDC","3ds":{"3ds_required":true}} 
2021-08-02 17:04:54||create||input={"order_id":1627898692,"product_name":"Test Payment","service_id":"21680742116712639","channel_type":"WEBSITE","cust_id":"c08172221839","amount":1,"currency":"THB","ref_1":"Reference1","form_type":"FORM","is_remember":false,"3ds":{"3ds_required":true,"3ds_url_success":"https:\/\/www.nextere.space\/api_area\/Payment\/paidresult","3ds_url_fail":"https:\/\/www.nextere.space\/api_area\/Payment\/paidresult"}} 
2021-08-02 17:04:54||create||output={"status":"PENDING","currency":"THB","amount":1.0,"order_id":"1627898692","txn_id":"T2121417055311721019","txn_token":"1c4c92c67b5745488b97eeb33c4033ac","status_message":"Success","cust_id":"c08172221839","amount_net":1.0,"amount_cust_fee":0.0,"created_at":"2021-08-02 17:05:53","form_url":"https://staging-payweb.ais.co.th:8443/template_whitelabel/#/init?token=1c4c92c67b5745488b97eeb33c4033ac&channelName=SuperDuperCWDC","3ds":{"3ds_required":true}} 
2021-08-02 17:26:15||create||input={"order_id":1627899974,"product_name":"Test Payment","service_id":"21680742116712639","channel_type":"WEBSITE","cust_id":"c08172221839","amount":1,"currency":"THB","ref_1":"Reference1","form_type":"FORM","is_remember":false,"3ds":{"3ds_required":true,"3ds_url_success":"https:\/\/www.nextere.space\/api_area\/Payment\/paidresult","3ds_url_fail":"https:\/\/www.nextere.space\/api_area\/Payment\/paidresult"}} 
2021-08-02 17:26:15||create||output={"status":"PENDING","currency":"THB","amount":1.0,"order_id":"1627899974","txn_id":"T2121417271316917261","txn_token":"c06993169fb94241a8accc0f6db54e60","status_message":"Success","cust_id":"c08172221839","amount_net":1.0,"amount_cust_fee":0.0,"created_at":"2021-08-02 17:27:13","form_url":"https://staging-payweb.ais.co.th:8443/template_whitelabel/#/init?token=c06993169fb94241a8accc0f6db54e60&channelName=SuperDuperCWDC","3ds":{"3ds_required":true}} 
[] 
{"order_id":"12312","merchant_id":"123123123","transaction_id":"123123","status":"3123","status_code":"12","status_message":"1","amount":"3","amount_net":"12","amount_cust_fee":"3123123","currency":"321312","service_id":"312312","channel_type":"1","ref_1":"32132131","ref_2":"3123123"} 
{"order_id":"12312","merchant_id":"123123123","transaction_id":"123123","status":"3123","status_code":"12","status_message":"1","amount":"3","amount_net":"12","amount_cust_fee":"3123123","currency":"321312","service_id":"312312","channel_type":"1","ref_1":"32132131","ref_2":"3123123"} 
2021-08-02 17:49:47||create||input={"order_id":1627901383,"product_name":"Test Payment","service_id":"21680742116712639","channel_type":"WEBSITE","cust_id":"c08172221839","amount":1,"currency":"THB","ref_1":"Reference1","form_type":"FORM","is_remember":false,"3ds":{"3ds_required":true,"3ds_url_success":"https:\/\/www.nextere.space\/api_area\/Payment\/paidresult","3ds_url_fail":"https:\/\/www.nextere.space\/api_area\/Payment\/paidresult"}} 
2021-08-02 17:49:47||create||output={"status":"PENDING","currency":"THB","amount":1.0,"order_id":"1627901383","txn_id":"T2121417504519513224","txn_token":"df7e23bd4d8e41be98a8f9d53554d941","status_message":"Success","cust_id":"c08172221839","amount_net":1.0,"amount_cust_fee":0.0,"created_at":"2021-08-02 17:50:45","form_url":"https://staging-payweb.ais.co.th:8443/template_whitelabel/#/init?token=df7e23bd4d8e41be98a8f9d53554d941&channelName=SuperDuperCWDC","3ds":{"3ds_required":true}} 
[] 
[] 
{"{_\"order_id\":_\"order_001\",_\"merchant_id\":_\"5396508\",_\"txn_id\":_\"T19317181124303024707\",_\"status\":_\"SUCCESS\",_\"status_code\":_\"SR0000\",_\"status_message\":_\"Success\",_\"currency\":_\"THB\",_\"amount\":_100_50,_\"amount_net\":_110_50,_\"amount_cust_fee\":_10_00,_\"service_id\":_\"19100061935133847\",_\"channel_type\":_\"QR\",_\"card\":_{_\"card_holder_name\":_\"Test_card\",_\"card_no\":_\"454628xxxxxx8110\",_\"card_type\":_\"Visa\",_\"card_expire\":_\"12\/21\",_\"card_country\":_\"10010\",_\"card_ref\":_\"7888f5279dd946f0a0bcd64cf2838533\"_},_\"installment\":_{_\"bank_issuer\":_\"BBL\",_\"term\":_6,_\"amount_per_term\":_13533_33_},_\"bank\":_{_\"account_last_digits\":_\"1234\",_\"account_name\":_\"\u0e40\u0e2d\u0e01xx_xx\u0e27\u0e34\u0e20\u0e32\u0e04\",_\"bank_code\":_\"002\"_},_\"rlp\":_{_\"pay_type\":_\"NORMAL\",_\"token_Id\":_\"9e93a443c2f6450c974c4f279fe40893\",_\"pay_info\":_":{" { \"method\": \"CREDIT_CARD\", \"amount\": 153.0, \"credit_card_nickname\": \"WITpYbtk\", \"credit_card_brand\": \"VISA\" } ":""},"0":[""]} 
[] 
[] 
[] 
[] 
[] 
[] 
[] 
{ 
 "order_id": "order_001", 
 "merchant_id": "5396508", 
 "txn_id": "T19317181124303024707", 
 "status": "SUCCESS", 
 "status_code": "SR0000", 
 "status_message": "Success", 
 "currency": "THB", 
 "amount": 100.50, 
 "amount_net": 110.50, 
 "amount_cust_fee": 10.00, 
 "service_id": "19100061935133847"
}  
"{ \r\n \"order_id\": \"order_001\", \r\n \"merchant_id\": \"5396508\", \r\n \"txn_id\": \"T19317181124303024707\", \r\n \"status\": \"SUCCESS\", \r\n \"status_code\": \"SR0000\", \r\n \"status_message\": \"Success\", \r\n \"currency\": \"THB\", \r\n \"amount\": 100.50, \r\n \"amount_net\": 110.50, \r\n \"amount_cust_fee\": 10.00, \r\n \"service_id\": \"19100061935133847\"\r\n} " 
"{ \r\n\t\"order_id\": \"order_001\", \r\n\t\"merchant_id\": \"5396508\", \r\n\t\"txn_id\": \"T19317181124303024707\", \r\n\t\"status\": \"SUCCESS\", \r\n\t\"status_code\": \"SR0000\", \r\n\t\"status_message\": \"Success\", \r\n\t\"currency\": \"THB\", \r\n\t\"amount\": 100.50, \r\n\t\"amount_net\": 110.50, \r\n\t\"amount_cust_fee\": 10.00, \r\n\t\"service_id\": \"19100061935133847\", \r\n\t\"channel_type\": \"QR\", \r\n\t\"card\": { \r\n\t\t\"card_holder_name\": \"Test card\", \r\n\t\t\"card_no\": \"454628xxxxxx8110\", \r\n\t\t\"card_type\": \"Visa\", \r\n\t\t\"card_expire\": \"12\/21\", \r\n\t\t\"card_country\": \"10010\", \r\n\t\t\"card_ref\": \"7888f5279dd946f0a0bcd64cf2838533\" }, \r\n\t\t\"installment\": { \r\n\t\t\t\"bank_issuer\": \"BBL\", \r\n\t\t\t\"term\": 6, \r\n\t\t\t\"amount_per_term\": 13533.33 \r\n\t\t}, \r\n\t\t\"bank\": { \r\n\t\t\t\"account_last_digits\": \"1234\", \r\n\t\t\t\"account_name\": \"\u0e40\u0e2d\u0e01xx xx\u0e27\u0e34\u0e20\u0e32\u0e04\"\r\n\t\t\t, \"bank_code\": \"002\" \r\n\t\t}, \r\n\t\t\"rlp\": { \r\n\t\t\t\"pay_type\": \"NORMAL\", \r\n\t\t\t\"token_Id\": \"9e93a443c2f6450c974c4f279fe40893\", \r\n\t\t\t\"pay_info\": [ { \r\n\t\t\t\t\"method\": \"CREDIT_CARD\", \r\n\t\t\t\t\"amount\": 153.0, \r\n\t\t\t\t\"credit_card_nickname\": \"WITpYbtk\", \r\n\t\t\t\t\"credit_card_brand\": \"VISA\" \r\n\t\t\t} ], \r\n\t\t\t\"packages\": [ \r\n\t\t\t\t{ \r\n\t\t\t\t\t\"id\": \"1\", \r\n\t\t\t\t\t\"amount\": 100.0, \r\n\t\t\t\t\t\"products\": [ { \r\n\t\t\t\t\t\t\"id\": \"PEN-B-001\", \r\n\t\t\t\t\t\t\"name\": \"Pen Brown\", \r\n\t\t\t\t\t\t\"image_url\": \"https:\/\/i.pinimg.com\/originals\/ce\/00\/48\/ce00488360a2e5a54a820b1671135a87.jpg\", \r\n\t\t\t\t\t\t\"quantity\": 2, \"price\": 50.0 \r\n\t\t\t\t\t} ] \r\n\t\t\t\t}, \r\n\t\t\t\t{ \r\n\t\t\t\t\t\"id\": \"2\", \r\n\t\t\t\t\t\"amount\": 50.0, \r\n\t\t\t\t\t\"products\": [\r\n\t\t\t\t\t\t{ \r\n\t\t\t\t\t\t\"id\": \"PEN-B-002\", \r\n\t\t\t\t\t\t\"name\": \"Pen Brown\", \r\n\t\t\t\t\t\t\"image_url\": \"https:\/\/pay-store.line.com\/images\/pen_brown.jpg\", \r\n\t\t\t\t\t\t\"quantity\": 1, \r\n\t\t\t\t\t\t\"price\": 50.0 \r\n\t\t\t\t\t\t} \r\n\t\t\t\t\t]\r\n\t\t\t\t} \r\n\t\t\t] \r\n\t\t}, \r\n\t\t\"rmbFlag\": \"Y\", \r\n\t\t\"sof_txn_id\": \"202006121877\",\r\n\t\t\"created_at\": \"2020-04-01T21:06:32.574\", \"success_at\": \"2020-04-01T21:06:32.574\", \"sof_type\": \"SOF_CC\" }" 
"{ \r\n\t\"order_id\": \"order_001\", \r\n\t\"merchant_id\": \"5396508\", \r\n\t\"txn_id\": \"T19317181124303024707\", \r\n\t\"status\": \"SUCCESS\", \r\n\t\"status_code\": \"SR0000\", \r\n\t\"status_message\": \"Success\", \r\n\t\"currency\": \"THB\", \r\n\t\"amount\": 100.50, \r\n\t\"amount_net\": 110.50, \r\n\t\"amount_cust_fee\": 10.00, \r\n\t\"service_id\": \"19100061935133847\", \r\n\t\"channel_type\": \"QR\", \r\n\t\"card\": { \r\n\t\t\"card_holder_name\": \"Test card\", \r\n\t\t\"card_no\": \"454628xxxxxx8110\", \r\n\t\t\"card_type\": \"Visa\", \r\n\t\t\"card_expire\": \"12\/21\", \r\n\t\t\"card_country\": \"10010\", \r\n\t\t\"card_ref\": \"7888f5279dd946f0a0bcd64cf2838533\" }, \r\n\t\t\"installment\": { \r\n\t\t\t\"bank_issuer\": \"BBL\", \r\n\t\t\t\"term\": 6, \r\n\t\t\t\"amount_per_term\": 13533.33 \r\n\t\t}, \r\n\t\t\"bank\": { \r\n\t\t\t\"account_last_digits\": \"1234\", \r\n\t\t\t\"account_name\": \"\u0e40\u0e2d\u0e01xx xx\u0e27\u0e34\u0e20\u0e32\u0e04\"\r\n\t\t\t, \"bank_code\": \"002\" \r\n\t\t}, \r\n\t\t\"rlp\": { \r\n\t\t\t\"pay_type\": \"NORMAL\", \r\n\t\t\t\"token_Id\": \"9e93a443c2f6450c974c4f279fe40893\", \r\n\t\t\t\"pay_info\": [ { \r\n\t\t\t\t\"method\": \"CREDIT_CARD\", \r\n\t\t\t\t\"amount\": 153.0, \r\n\t\t\t\t\"credit_card_nickname\": \"WITpYbtk\", \r\n\t\t\t\t\"credit_card_brand\": \"VISA\" \r\n\t\t\t} ], \r\n\t\t\t\"packages\": [ \r\n\t\t\t\t{ \r\n\t\t\t\t\t\"id\": \"1\", \r\n\t\t\t\t\t\"amount\": 100.0, \r\n\t\t\t\t\t\"products\": [ { \r\n\t\t\t\t\t\t\"id\": \"PEN-B-001\", \r\n\t\t\t\t\t\t\"name\": \"Pen Brown\", \r\n\t\t\t\t\t\t\"image_url\": \"https:\/\/i.pinimg.com\/originals\/ce\/00\/48\/ce00488360a2e5a54a820b1671135a87.jpg\", \r\n\t\t\t\t\t\t\"quantity\": 2, \"price\": 50.0 \r\n\t\t\t\t\t} ] \r\n\t\t\t\t}, \r\n\t\t\t\t{ \r\n\t\t\t\t\t\"id\": \"2\", \r\n\t\t\t\t\t\"amount\": 50.0, \r\n\t\t\t\t\t\"products\": [\r\n\t\t\t\t\t\t{ \r\n\t\t\t\t\t\t\"id\": \"PEN-B-002\", \r\n\t\t\t\t\t\t\"name\": \"Pen Brown\", \r\n\t\t\t\t\t\t\"image_url\": \"https:\/\/pay-store.line.com\/images\/pen_brown.jpg\", \r\n\t\t\t\t\t\t\"quantity\": 1, \r\n\t\t\t\t\t\t\"price\": 50.0 \r\n\t\t\t\t\t\t} \r\n\t\t\t\t\t]\r\n\t\t\t\t} \r\n\t\t\t] \r\n\t\t}, \r\n\t\t\"rmbFlag\": \"Y\", \r\n\t\t\"sof_txn_id\": \"202006121877\",\r\n\t\t\"created_at\": \"2020-04-01T21:06:32.574\", \"success_at\": \"2020-04-01T21:06:32.574\", \"sof_type\": \"SOF_CC\" }" 
{ 
 "order_id": "order_001", 
 "merchant_id": "5396508", 
 "txn_id": "T19317181124303024707", 
 "status": "SUCCESS", 
 "status_code": "SR0000", 
 "status_message": "Success", 
 "currency": "THB", 
 "amount": 100.50, 
 "amount_net": 110.50, 
 "amount_cust_fee": 10.00, 
 "service_id": "19100061935133847"
}  
{ 
	"order_id": "order_001", 
	"merchant_id": "5396508", 
	"txn_id": "T19317181124303024707", 
	"status": "SUCCESS", 
	"status_code": "SR0000", 
	"status_message": "Success", 
	"currency": "THB", 
	"amount": 100.50, 
	"amount_net": 110.50, 
	"amount_cust_fee": 10.00, 
	"service_id": "19100061935133847", 
	"channel_type": "QR", 
	"card": { 
		"card_holder_name": "Test card", 
		"card_no": "454628xxxxxx8110", 
		"card_type": "Visa", 
		"card_expire": "12/21", 
		"card_country": "10010", 
		"card_ref": "7888f5279dd946f0a0bcd64cf2838533" }, 
		"installment": { 
			"bank_issuer": "BBL", 
			"term": 6, 
			"amount_per_term": 13533.33 
		}, 
		"bank": { 
			"account_last_digits": "1234", 
			"account_name": "เอกxx xxวิภาค"
			, "bank_code": "002" 
		}, 
		"rlp": { 
			"pay_type": "NORMAL", 
			"token_Id": "9e93a443c2f6450c974c4f279fe40893", 
			"pay_info": [ { 
				"method": "CREDIT_CARD", 
				"amount": 153.0, 
				"credit_card_nickname": "WITpYbtk", 
				"credit_card_brand": "VISA" 
			} ], 
			"packages": [ 
				{ 
					"id": "1", 
					"amount": 100.0, 
					"products": [ { 
						"id": "PEN-B-001", 
						"name": "Pen Brown", 
						"image_url": "https://i.pinimg.com/originals/ce/00/48/ce00488360a2e5a54a820b1671135a87.jpg", 
						"quantity": 2, "price": 50.0 
					} ] 
				}, 
				{ 
					"id": "2", 
					"amount": 50.0, 
					"products": [
						{ 
						"id": "PEN-B-002", 
						"name": "Pen Brown", 
						"image_url": "https://pay-store.line.com/images/pen_brown.jpg", 
						"quantity": 1, 
						"price": 50.0 
						} 
					]
				} 
			] 
		}, 
		"rmbFlag": "Y", 
		"sof_txn_id": "202006121877",
		"created_at": "2020-04-01T21:06:32.574", "success_at": "2020-04-01T21:06:32.574", "sof_type": "SOF_CC" } 
{ 
 "order_id": "order_001", 
 "merchant_id": "5396508", 
 "txn_id": "T19317181124303024707", 
 "status": "SUCCESS", 
 "status_code": "SR0000", 
 "status_message": "Success", 
 "currency": "THB", 
 "amount": 100.50, 
 "amount_net": 110.50, 
 "amount_cust_fee": 10.00, 
 "service_id": "19100061935133847"
}  
{ 
 "order_id": "order_001", 
 "merchant_id": "5396508", 
 "txn_id": "T19317181124303024707", 
 "status": "SUCCESS", 
 "status_code": "SR0000", 
 "status_message": "Success", 
 "currency": "THB", 
 "amount": 100.50, 
 "amount_net": 110.50, 
 "amount_cust_fee": 10.00, 
 "service_id": "19100061935133847"
}  
{ 
	"order_id": "order_001", 
	"merchant_id": "5396508", 
	"txn_id": "T19317181124303024707", 
	"status": "SUCCESS", 
	"status_code": "SR0000", 
	"status_message": "Success", 
	"currency": "THB", 
	"amount": 100.50, 
	"amount_net": 110.50, 
	"amount_cust_fee": 10.00, 
	"service_id": "19100061935133847", 
	"channel_type": "QR", 
	"card": { 
		"card_holder_name": "Test card", 
		"card_no": "454628xxxxxx8110", 
		"card_type": "Visa", 
		"card_expire": "12/21", 
		"card_country": "10010", 
		"card_ref": "7888f5279dd946f0a0bcd64cf2838533" }, 
		"installment": { 
			"bank_issuer": "BBL", 
			"term": 6, 
			"amount_per_term": 13533.33 
		}, 
		"bank": { 
			"account_last_digits": "1234", 
			"account_name": "เอกxx xxวิภาค"
			, "bank_code": "002" 
		}, 
		"rlp": { 
			"pay_type": "NORMAL", 
			"token_Id": "9e93a443c2f6450c974c4f279fe40893", 
			"pay_info": [ { 
				"method": "CREDIT_CARD", 
				"amount": 153.0, 
				"credit_card_nickname": "WITpYbtk", 
				"credit_card_brand": "VISA" 
			} ], 
			"packages": [ 
				{ 
					"id": "1", 
					"amount": 100.0, 
					"products": [ { 
						"id": "PEN-B-001", 
						"name": "Pen Brown", 
						"image_url": "https://i.pinimg.com/originals/ce/00/48/ce00488360a2e5a54a820b1671135a87.jpg", 
						"quantity": 2, "price": 50.0 
					} ] 
				}, 
				{ 
					"id": "2", 
					"amount": 50.0, 
					"products": [
						{ 
						"id": "PEN-B-002", 
						"name": "Pen Brown", 
						"image_url": "https://pay-store.line.com/images/pen_brown.jpg", 
						"quantity": 1, 
						"price": 50.0 
						} 
					]
				} 
			] 
		}, 
		"rmbFlag": "Y", 
		"sof_txn_id": "202006121877",
		"created_at": "2020-04-01T21:06:32.574", "success_at": "2020-04-01T21:06:32.574", "sof_type": "SOF_CC" } 
Array 
Array 
"{ \r\n \"order_id\": \"order_001\", \r\n \"merchant_id\": \"5396508\", \r\n \"txn_id\": \"T19317181124303024707\", \r\n \"status\": \"SUCCESS\", \r\n \"status_code\": \"SR0000\", \r\n \"status_message\": \"Success\", \r\n \"currency\": \"THB\", \r\n \"amount\": 100.50, \r\n \"amount_net\": 110.50, \r\n \"amount_cust_fee\": 10.00, \r\n \"service_id\": \"19100061935133847\"\r\n} " 
"{ \r\n \"order_id\": \"order_001\", \r\n \"merchant_id\": \"5396508\", \r\n \"txn_id\": \"T19317181124303024707\", \r\n \"status\": \"SUCCESS\", \r\n \"status_code\": \"SR0000\", \r\n \"status_message\": \"Success\", \r\n \"currency\": \"THB\", \r\n \"amount\": 100.50, \r\n \"amount_net\": 110.50, \r\n \"amount_cust_fee\": 10.00, \r\n \"service_id\": \"19100061935133847\"\r\n} " 
