2021-10-04 11:02:26||create||input={"order_id":"20211004110224","product_name":"Nextere Payment","service_id":"21680742116712639","channel_type":"WEBSITE","cust_id":"C1633320144","amount":"11860","currency":"THB","ref_1":"Reference1","form_type":"FORM","is_remember":false,"3ds":{"3ds_required":true,"3ds_url_success":"https:\/\/www.nextere.space\/Product\/Bill","3ds_url_fail":"https:\/\/www.nextere.space\/Product\/Bill_fail"}} 
2021-10-04 11:02:26||create||output={"status":"PENDING","currency":"THB","amount":11860.0,"order_id":"20211004110224","txn_id":"T2127711050893530390","txn_token":"ac7f751abbf441d2ae70aa6e1d4b46ff","status_message":"Success","cust_id":"C1633320144","amount_net":11860.0,"amount_cust_fee":0.0,"created_at":"2021-10-04 11:05:08","form_url":"https://staging-payweb.ais.co.th:8443/template_whitelabel/#/init?token=ac7f751abbf441d2ae70aa6e1d4b46ff&channelName=SuperDuperCWDC","3ds":{"3ds_required":true}} 
2021-10-04 11:20:36||create||input={"order_id":"20211004112034","product_name":"Nextere Payment","service_id":"21680742116712639","channel_type":"WEBSITE","cust_id":"C1633321234","amount":"11860","currency":"THB","ref_1":"Reference1","form_type":"FORM","is_remember":false,"3ds":{"3ds_required":true,"3ds_url_success":"https:\/\/www.nextere.space\/Product\/Bill","3ds_url_fail":"https:\/\/www.nextere.space\/Product\/Bill_fail"}} 
2021-10-04 11:20:36||create||output={"status":"PENDING","currency":"THB","amount":11860.0,"order_id":"20211004112034","txn_id":"T2127711231952426321","txn_token":"4ffb94c01ab54878b15d011b304ed8a0","status_message":"Success","cust_id":"C1633321234","amount_net":11860.0,"amount_cust_fee":0.0,"created_at":"2021-10-04 11:23:19","form_url":"https://staging-payweb.ais.co.th:8443/template_whitelabel/#/init?token=4ffb94c01ab54878b15d011b304ed8a0&channelName=SuperDuperCWDC","3ds":{"3ds_required":true}} 
2021-10-04 11:20:57||hook||respone={"txn_id":"T2127711231952426321","txn_type":"PAYMENT","status":"SUCCESS","status_code":"I0000","status_message":"Success","order_id":"20211004112034","cust_id":"C1633321234","service_id":"21680742116712639","channel_type":"WEBSITE","amount":11860.0,"amount_net":11860.0,"currency":"THB","ref_1":"Reference1","card":{"card_ref":"0247e6a06daf42ef877095780e2cbf89","card_no":"421584XXXXXX9109","card_type":"VISA","card_expire":"09/2023"},"rmb_flag":"N","sof_txn_id":"1053122","created_at":"212771110538023","success_at":"2021-10-04T04:23:40.889Z","sof_type":"SOF_CC"} 
2021-10-04 11:26:24||create||input={"order_id":"20211004112622","product_name":"Nextere Payment","service_id":"21680742116712639","channel_type":"WEBSITE","cust_id":"C1633321582","amount":"11860","currency":"THB","ref_1":"Reference1","form_type":"FORM","is_remember":false,"3ds":{"3ds_required":true,"3ds_url_success":"https:\/\/www.nextere.space\/Product\/Bill","3ds_url_fail":"https:\/\/www.nextere.space\/Product\/Bill_fail"}} 
2021-10-04 11:26:24||create||output={"status":"PENDING","currency":"THB","amount":11860.0,"order_id":"20211004112622","txn_id":"T2127711290711422583","txn_token":"20ea79bb0de4452ca98151d6fad3fc75","status_message":"Success","cust_id":"C1633321582","amount_net":11860.0,"amount_cust_fee":0.0,"created_at":"2021-10-04 11:29:07","form_url":"https://staging-payweb.ais.co.th:8443/template_whitelabel/#/init?token=20ea79bb0de4452ca98151d6fad3fc75&channelName=SuperDuperCWDC","3ds":{"3ds_required":true}} 
2021-10-04 11:26:45||hook||respone={"txn_id":"T2127711290711422583","txn_type":"PAYMENT","status":"SUCCESS","status_code":"I0000","status_message":"Success","order_id":"20211004112622","cust_id":"C1633321582","service_id":"21680742116712639","channel_type":"WEBSITE","amount":11860.0,"amount_net":11860.0,"currency":"THB","ref_1":"Reference1","card":{"card_ref":"b2d4f010ba284ae4b7a7ba2188992823","card_no":"421584XXXXXX9109","card_type":"VISA","card_expire":"09/2023"},"rmb_flag":"N","sof_txn_id":"1053125","created_at":"212771110130029","success_at":"2021-10-04T04:29:28.926Z","sof_type":"SOF_CC"} 
