2021-09-30 11:02:08||create||input={"order_id":"20210930110207","product_name":"Nextere Payment","service_id":"21680742116712639","channel_type":"WEBSITE","cust_id":"C1632974527","amount":"15443","currency":"THB","ref_1":"Reference1","form_type":"FORM","is_remember":false,"3ds":{"3ds_required":true,"3ds_url_success":"https:\/\/www.nextere.space\/Product\/Bill","3ds_url_fail":"https:\/\/www.nextere.space\/Product\/Bill_fail"}} 
2021-09-30 11:02:08||create||output={"status":"PENDING","currency":"THB","amount":15443.0,"order_id":"20210930110207","txn_id":"T2127311044493417170","txn_token":"1e1ca5441f224630a08a1ff469a29a67","status_message":"Success","cust_id":"C1632974527","amount_net":15443.0,"amount_cust_fee":0.0,"created_at":"2021-09-30 11:04:44","form_url":"https://staging-payweb.ais.co.th:8443/template_whitelabel/#/init?token=1e1ca5441f224630a08a1ff469a29a67&channelName=SuperDuperCWDC","3ds":{"3ds_required":true}} 
2021-09-30 11:02:45||hook||respone={"txn_id":"T2127311044493417170","txn_type":"PAYMENT","status":"SUCCESS","status_code":"I0000","status_message":"Success","order_id":"20210930110207","cust_id":"C1632974527","service_id":"21680742116712639","channel_type":"WEBSITE","amount":15443.0,"amount_net":15443.0,"currency":"THB","ref_1":"Reference1","card":{"card_ref":"541c631e092e40ef9acadcd235b2cbca","card_no":"416202XXXXXX4593","card_type":"VISA","card_expire":"05/2023"},"rmb_flag":"N","sof_txn_id":"1051329","created_at":"212731109941004","success_at":"2021-09-30T04:05:22.273Z","sof_type":"SOF_CC"} 
2021-09-30 11:03:35||create||input={"order_id":"20210930110334","product_name":"Nextere Payment","service_id":"21680742116712639","channel_type":"WEBSITE","cust_id":"C1632974614","amount":"11860","currency":"THB","ref_1":"Reference1","form_type":"FORM","is_remember":false,"3ds":{"3ds_required":true,"3ds_url_success":"https:\/\/www.nextere.space\/Product\/Bill","3ds_url_fail":"https:\/\/www.nextere.space\/Product\/Bill_fail"}} 
2021-09-30 11:03:35||create||output={"status":"PENDING","currency":"THB","amount":11860.0,"order_id":"20210930110334","txn_id":"T2127311061183230923","txn_token":"9e778f01d7074d90a651395b545f9ad9","status_message":"Success","cust_id":"C1632974614","amount_net":11860.0,"amount_cust_fee":0.0,"created_at":"2021-09-30 11:06:11","form_url":"https://staging-payweb.ais.co.th:8443/template_whitelabel/#/init?token=9e778f01d7074d90a651395b545f9ad9&channelName=SuperDuperCWDC","3ds":{"3ds_required":true}} 
2021-09-30 11:05:57||create||input={"order_id":"20210930110555","product_name":"Nextere Payment","service_id":"21680742116712639","channel_type":"WEBSITE","cust_id":"C1632974755","amount":"11860","currency":"THB","ref_1":"Reference1","form_type":"FORM","is_remember":false,"3ds":{"3ds_required":true,"3ds_url_success":"https:\/\/www.nextere.space\/Product\/Bill","3ds_url_fail":"https:\/\/www.nextere.space\/Product\/Bill_fail"}} 
2021-09-30 11:05:57||create||output={"status":"PENDING","currency":"THB","amount":11860.0,"order_id":"20210930110555","txn_id":"T2127311083338828508","txn_token":"a7e37573b8ca4d9688ce31575bfdc641","status_message":"Success","cust_id":"C1632974755","amount_net":11860.0,"amount_cust_fee":0.0,"created_at":"2021-09-30 11:08:33","form_url":"https://staging-payweb.ais.co.th:8443/template_whitelabel/#/init?token=a7e37573b8ca4d9688ce31575bfdc641&channelName=SuperDuperCWDC","3ds":{"3ds_required":true}} 
2021-09-30 11:06:14||hook||respone={"txn_id":"T2127311083338828508","txn_type":"PAYMENT","status":"SUCCESS","status_code":"I0000","status_message":"Success","order_id":"20210930110555","cust_id":"C1632974755","service_id":"21680742116712639","channel_type":"WEBSITE","amount":11860.0,"amount_net":11860.0,"currency":"THB","ref_1":"Reference1","card":{"card_ref":"320bb0e847464d1487f578fff999b18c","card_no":"416202XXXXXX4593","card_type":"VISA","card_expire":"05/2023"},"rmb_flag":"N","sof_txn_id":"1051332","created_at":"212731109437008","success_at":"2021-09-30T04:08:50.734Z","sof_type":"SOF_CC"} 
2021-09-30 16:20:48||create||input={"order_id":"20210930162046","product_name":"Nextere Payment","service_id":"21680742116712639","channel_type":"WEBSITE","cust_id":"C1632993646","amount":"210000","currency":"THB","ref_1":"Reference1","form_type":"FORM","is_remember":false,"3ds":{"3ds_required":true,"3ds_url_success":"https:\/\/www.nextere.space\/Product\/Bill","3ds_url_fail":"https:\/\/www.nextere.space\/Product\/Bill_fail"}} 
2021-09-30 16:20:48||create||output={"status":"PENDING","currency":"THB","amount":210000.0,"order_id":"20210930162046","txn_id":"T2127316232499445360","txn_token":"825c821a177c4d808f37b62dd2259923","status_message":"Success","cust_id":"C1632993646","amount_net":210000.0,"amount_cust_fee":0.0,"created_at":"2021-09-30 16:23:25","form_url":"https://staging-payweb.ais.co.th:8443/template_whitelabel/#/init?token=825c821a177c4d808f37b62dd2259923&channelName=SuperDuperCWDC","3ds":{"3ds_required":true}} 
2021-09-30 16:23:03||create||input={"order_id":"20210930162301","product_name":"Nextere Payment","service_id":"21680742116712639","channel_type":"WEBSITE","cust_id":"C1632993781","amount":"210000","currency":"THB","ref_1":"Reference1","form_type":"FORM","is_remember":false,"3ds":{"3ds_required":true,"3ds_url_success":"https:\/\/www.nextere.space\/Product\/Bill","3ds_url_fail":"https:\/\/www.nextere.space\/Product\/Bill_fail"}} 
2021-09-30 16:23:03||create||output={"status":"PENDING","currency":"THB","amount":210000.0,"order_id":"20210930162301","txn_id":"T2127316253983270262","txn_token":"c282eac0d14e451683aa17b617b8d0a3","status_message":"Success","cust_id":"C1632993781","amount_net":210000.0,"amount_cust_fee":0.0,"created_at":"2021-09-30 16:25:39","form_url":"https://staging-payweb.ais.co.th:8443/template_whitelabel/#/init?token=c282eac0d14e451683aa17b617b8d0a3&channelName=SuperDuperCWDC","3ds":{"3ds_required":true}} 
2021-09-30 16:24:03||hook||respone={"txn_id":"T2127316253983270262","txn_type":"PAYMENT","status":"SUCCESS","status_code":"I0000","status_message":"Success","order_id":"20210930162301","cust_id":"C1632993781","service_id":"21680742116712639","channel_type":"WEBSITE","amount":210000.0,"amount_net":210000.0,"currency":"THB","ref_1":"Reference1","card":{"card_ref":"dbf48c3dc99a4f9cb5c91c75c3f82b44","card_no":"421584XXXXXX9109","card_type":"VISA","card_expire":"09/2023"},"rmb_flag":"N","sof_txn_id":"1051622","created_at":"212731609842025","success_at":"2021-09-30T09:26:40.416Z","sof_type":"SOF_CC"} 
2021-09-30 16:48:43||create||input={"order_id":"20210930164841","product_name":"Nextere Payment","service_id":"21680742116712639","channel_type":"WEBSITE","cust_id":"C1632995321","amount":"30","currency":"THB","ref_1":"Reference1","form_type":"FORM","is_remember":false,"3ds":{"3ds_required":true,"3ds_url_success":"https:\/\/www.nextere.space\/Product\/Bill","3ds_url_fail":"https:\/\/www.nextere.space\/Product\/Bill_fail"}} 
2021-09-30 16:48:43||create||output={"status":"PENDING","currency":"THB","amount":30.0,"order_id":"20210930164841","txn_id":"T2127316511996232834","txn_token":"0b4631076e8549959d786dbd9e012640","status_message":"Success","cust_id":"C1632995321","amount_net":30.0,"amount_cust_fee":0.0,"created_at":"2021-09-30 16:51:19","form_url":"https://staging-payweb.ais.co.th:8443/template_whitelabel/#/init?token=0b4631076e8549959d786dbd9e012640&channelName=SuperDuperCWDC","3ds":{"3ds_required":true}} 
2021-09-30 16:48:44||create||input={"order_id":"20210930164843","product_name":"Nextere Payment","service_id":"21680742116712639","channel_type":"WEBSITE","cust_id":"C1632995323","amount":"30","currency":"THB","ref_1":"Reference1","form_type":"FORM","is_remember":false,"3ds":{"3ds_required":true,"3ds_url_success":"https:\/\/www.nextere.space\/Product\/Bill","3ds_url_fail":"https:\/\/www.nextere.space\/Product\/Bill_fail"}} 
2021-09-30 16:48:44||create||output={"status":"PENDING","currency":"THB","amount":30.0,"order_id":"20210930164843","txn_id":"T2127316512157022393","txn_token":"c4b85dc1770a4c268b174f21316e471f","status_message":"Success","cust_id":"C1632995323","amount_net":30.0,"amount_cust_fee":0.0,"created_at":"2021-09-30 16:51:21","form_url":"https://staging-payweb.ais.co.th:8443/template_whitelabel/#/init?token=c4b85dc1770a4c268b174f21316e471f&channelName=SuperDuperCWDC","3ds":{"3ds_required":true}} 
2021-09-30 16:50:19||create||input={"order_id":"20210930165018","product_name":"Nextere Payment","service_id":"21680742116712639","channel_type":"WEBSITE","cust_id":"C1632995418","amount":"30","currency":"THB","ref_1":"Reference1","form_type":"FORM","is_remember":false,"3ds":{"3ds_required":true,"3ds_url_success":"https:\/\/www.nextere.space\/Product\/Bill","3ds_url_fail":"https:\/\/www.nextere.space\/Product\/Bill_fail"}} 
2021-09-30 16:50:19||create||output={"status":"PENDING","currency":"THB","amount":30.0,"order_id":"20210930165018","txn_id":"T2127316525614931434","txn_token":"c759c046e0e4421aa9324ceb90e6f4e0","status_message":"Success","cust_id":"C1632995418","amount_net":30.0,"amount_cust_fee":0.0,"created_at":"2021-09-30 16:52:56","form_url":"https://staging-payweb.ais.co.th:8443/template_whitelabel/#/init?token=c759c046e0e4421aa9324ceb90e6f4e0&channelName=SuperDuperCWDC","3ds":{"3ds_required":true}} 
2021-09-30 16:50:20||create||input={"order_id":"20210930165019","product_name":"Nextere Payment","service_id":"21680742116712639","channel_type":"WEBSITE","cust_id":"C1632995419","amount":"30","currency":"THB","ref_1":"Reference1","form_type":"FORM","is_remember":false,"3ds":{"3ds_required":true,"3ds_url_success":"https:\/\/www.nextere.space\/Product\/Bill","3ds_url_fail":"https:\/\/www.nextere.space\/Product\/Bill_fail"}} 
2021-09-30 16:50:20||create||output={"status":"PENDING","currency":"THB","amount":30.0,"order_id":"20210930165019","txn_id":"T2127316525785613677","txn_token":"2a09818d7d104c8185eded2cb597edf1","status_message":"Success","cust_id":"C1632995419","amount_net":30.0,"amount_cust_fee":0.0,"created_at":"2021-09-30 16:52:57","form_url":"https://staging-payweb.ais.co.th:8443/template_whitelabel/#/init?token=2a09818d7d104c8185eded2cb597edf1&channelName=SuperDuperCWDC","3ds":{"3ds_required":true}} 
2021-09-30 16:50:58||create||input={"order_id":"20210930165056","product_name":"Nextere Payment","service_id":"21680742116712639","channel_type":"WEBSITE","cust_id":"C1632995456","amount":"30","currency":"THB","ref_1":"Reference1","form_type":"FORM","is_remember":false,"3ds":{"3ds_required":true,"3ds_url_success":"https:\/\/www.nextere.space\/Product\/Bill","3ds_url_fail":"https:\/\/www.nextere.space\/Product\/Bill_fail"}} 
2021-09-30 16:50:58||create||output={"status":"PENDING","currency":"THB","amount":30.0,"order_id":"20210930165056","txn_id":"T2127316533468810515","txn_token":"e375466dd6c04450bac357afec74e5c4","status_message":"Success","cust_id":"C1632995456","amount_net":30.0,"amount_cust_fee":0.0,"created_at":"2021-09-30 16:53:34","form_url":"https://staging-payweb.ais.co.th:8443/template_whitelabel/#/init?token=e375466dd6c04450bac357afec74e5c4&channelName=SuperDuperCWDC","3ds":{"3ds_required":true}} 
2021-09-30 16:50:59||create||input={"order_id":"20210930165058","product_name":"Nextere Payment","service_id":"21680742116712639","channel_type":"WEBSITE","cust_id":"C1632995458","amount":"30","currency":"THB","ref_1":"Reference1","form_type":"FORM","is_remember":false,"3ds":{"3ds_required":true,"3ds_url_success":"https:\/\/www.nextere.space\/Product\/Bill","3ds_url_fail":"https:\/\/www.nextere.space\/Product\/Bill_fail"}} 
2021-09-30 16:50:59||create||output={"status":"PENDING","currency":"THB","amount":30.0,"order_id":"20210930165058","txn_id":"T2127316533620718135","txn_token":"b083e67a830a4b738c7c4e66cc6f3174","status_message":"Success","cust_id":"C1632995458","amount_net":30.0,"amount_cust_fee":0.0,"created_at":"2021-09-30 16:53:36","form_url":"https://staging-payweb.ais.co.th:8443/template_whitelabel/#/init?token=b083e67a830a4b738c7c4e66cc6f3174&channelName=SuperDuperCWDC","3ds":{"3ds_required":true}} 
2021-09-30 23:59:02||create||input={"order_id":"20210930235900","product_name":"Nextere Payment","service_id":"21680742116712639","channel_type":"WEBSITE","cust_id":"C1633021140","amount":"40259","currency":"THB","ref_1":"Reference1","form_type":"FORM","is_remember":false,"3ds":{"3ds_required":true,"3ds_url_success":"https:\/\/www.nextere.space\/Product\/Bill","3ds_url_fail":"https:\/\/www.nextere.space\/Product\/Bill_fail"}} 
2021-09-30 23:59:02||create||output={"status":"PENDING","currency":"THB","amount":40259.0,"order_id":"20210930235900","txn_id":"T2127400013909436537","txn_token":"b06203ea85b34bf4a3cf3b2fa0c39391","status_message":"Success","cust_id":"C1633021140","amount_net":40259.0,"amount_cust_fee":0.0,"created_at":"2021-10-01 00:01:39","form_url":"https://staging-payweb.ais.co.th:8443/template_whitelabel/#/init?token=b06203ea85b34bf4a3cf3b2fa0c39391&channelName=SuperDuperCWDC","3ds":{"3ds_required":true}} 
