2021-10-23 02:01:26||create||input={"order_id":"20211023020124","product_name":"Nextere Payment","service_id":"21680742116712639","channel_type":"WEBSITE","cust_id":"C1634929284","amount":"35607","currency":"THB","ref_1":"Reference1","form_type":"FORM","is_remember":false,"3ds":{"3ds_required":true,"3ds_url_success":"https:\/\/www.nextere.space\/Product\/Bill","3ds_url_fail":"https:\/\/www.nextere.space\/Product\/Bill_fail"}} 
2021-10-23 02:01:26||create||output={"status":"PENDING","currency":"THB","amount":35607.0,"order_id":"20211023020124","txn_id":"T2129602043980517976","txn_token":"ab82678fbc4948a8b4774d407ba663f0","status_message":"Success","cust_id":"C1634929284","amount_net":35607.0,"amount_cust_fee":0.0,"created_at":"2021-10-23 02:04:39","form_url":"https://staging-payweb.ais.co.th:8443/template_whitelabel/#/init?token=ab82678fbc4948a8b4774d407ba663f0&channelName=SuperDuperCWDC","3ds":{"3ds_required":true}} 
2021-10-23 02:15:28||create||input={"order_id":"20211023021526","product_name":"Nextere Payment","service_id":"21680742116712639","channel_type":"WEBSITE","cust_id":"C1634930126","amount":"35607","currency":"THB","ref_1":"Reference1","form_type":"FORM","is_remember":false,"3ds":{"3ds_required":true,"3ds_url_success":"https:\/\/www.nextere.space\/Product\/Bill","3ds_url_fail":"https:\/\/www.nextere.space\/Product\/Bill_fail"}} 
2021-10-23 02:15:28||create||output={"status":"PENDING","currency":"THB","amount":35607.0,"order_id":"20211023021526","txn_id":"T2129602184245932007","txn_token":"17a738cacb1f40dd8df72d53d058e31a","status_message":"Success","cust_id":"C1634930126","amount_net":35607.0,"amount_cust_fee":0.0,"created_at":"2021-10-23 02:18:42","form_url":"https://staging-payweb.ais.co.th:8443/template_whitelabel/#/init?token=17a738cacb1f40dd8df72d53d058e31a&channelName=SuperDuperCWDC","3ds":{"3ds_required":true}} 
2021-10-23 03:02:07||hook||respone={"times":1,"order_id":"1634931542","merchant_id":"2168074","txn_id":"T2129602421797213820","status":"FAIL","status_code":"SR1000","status_message":"Bank Fail","currency":"THB","amount":11860.0,"amount_net":11860.0,"amount_cust_fee":0.0,"service_id":"21680742116712639","channel_type":"WEBSITE","brand_type":"BRAND_DD","sof_type":"SOF_INTERNET_BANKING","created_at":"2021-10-23 02:42:17.972","fail_at":"2021-10-23 03:05:21.856","ref_1":"Reference1","bank":{"bank_code":"002"},"sof_txn_id":"1063739"} 
