2021-09-02 16:09:41||create||input={"order_id":1630573779,"product_name":"Nextere Payment","service_id":"21680742116712639","channel_type":"WEBSITE","cust_id":"C1630573779","amount":"5928","currency":"THB","ref_1":"Reference1","form_type":"FORM","is_remember":false,"3ds":{"3ds_required":true,"3ds_url_success":"https:\/\/www.nextere.space\/Product\/Bill","3ds_url_fail":"https:\/\/www.nextere.space\/Product\/Bill_fail"}} 
2021-09-02 16:09:41||create||output={"status":"PENDING","currency":"THB","amount":5928.0,"order_id":"1630573779","txn_id":"T2124516113172519356","txn_token":"126028a34bb04b8cb2c1d3082621ba3f","status_message":"Success","cust_id":"C1630573779","amount_net":5928.0,"amount_cust_fee":0.0,"created_at":"2021-09-02 16:11:31","form_url":"https://staging-payweb.ais.co.th:8443/template_whitelabel/#/init?token=126028a34bb04b8cb2c1d3082621ba3f&channelName=SuperDuperCWDC","3ds":{"3ds_required":true}} 
2021-09-02 16:10:19||create||input={"order_id":1630573818,"product_name":"Nextere Payment","service_id":"21680742116712639","channel_type":"WEBSITE","cust_id":"C1630573818","amount":"5928","currency":"THB","ref_1":"Reference1","form_type":"FORM","is_remember":false,"3ds":{"3ds_required":true,"3ds_url_success":"https:\/\/www.nextere.space\/Product\/Bill","3ds_url_fail":"https:\/\/www.nextere.space\/Product\/Bill_fail"}} 
2021-09-02 16:10:19||create||output={"status":"PENDING","currency":"THB","amount":5928.0,"order_id":"1630573818","txn_id":"T2124516120924618117","txn_token":"1a6d9d7e98994f0fa9540065a0eeb636","status_message":"Success","cust_id":"C1630573818","amount_net":5928.0,"amount_cust_fee":0.0,"created_at":"2021-09-02 16:12:09","form_url":"https://staging-payweb.ais.co.th:8443/template_whitelabel/#/init?token=1a6d9d7e98994f0fa9540065a0eeb636&channelName=SuperDuperCWDC","3ds":{"3ds_required":true}} 
2021-09-02 16:10:53||create||input={"order_id":1630573852,"product_name":"Nextere Payment","service_id":"21680742116712639","channel_type":"WEBSITE","cust_id":"C1630573852","amount":"5928","currency":"THB","ref_1":"Reference1","form_type":"FORM","is_remember":false,"3ds":{"3ds_required":true,"3ds_url_success":"https:\/\/www.nextere.space\/Product\/Bill","3ds_url_fail":"https:\/\/www.nextere.space\/Product\/Bill_fail"}} 
2021-09-02 16:10:53||create||output={"status":"PENDING","currency":"THB","amount":5928.0,"order_id":"1630573852","txn_id":"T2124516124318319149","txn_token":"9909c3194f1646309b96ec3fb33eb462","status_message":"Success","cust_id":"C1630573852","amount_net":5928.0,"amount_cust_fee":0.0,"created_at":"2021-09-02 16:12:43","form_url":"https://staging-payweb.ais.co.th:8443/template_whitelabel/#/init?token=9909c3194f1646309b96ec3fb33eb462&channelName=SuperDuperCWDC","3ds":{"3ds_required":true}} 
