2021-10-14 15:16:07||create||input={"order_id":1634199366,"product_name":"Nextere Payment","bank_code":"002","service_id":"21680742116712639","channel_type":"WEBSITE","cust_id":"C1634199366","amount":"168","currency":"THB","ref_1":"Reference1","redirect_urls":{"url_success":"https:\/\/www.nextere.space\/Product\/Bill","url_fail":"https:\/\/www.nextere.space\/Product\/Bill_fail"}} 
2021-10-14 15:16:07||create||output={"order_id":"1634199366","amount":168.0,"amount_net":168.0,"amount_cust_fee":0.0,"txn_id":"T2128715190778312137","status":"PENDING","message":"success","currency":"THB","authorize_url":"https://api.stg-paymentgateway.ais.co.th/stg/service-txn-gateway/v1/internet-banking/DNGZ8fBRy2r68ul1koviPTBhT1UyMgukGgCKiRhuVQYiGvCzOwZEY9E_R3hivW9RY1kZtzOjpz70SxYhU9NZ7Q==/payment"} 
2021-10-14 16:01:13||create||input={"order_id":1634202073,"product_name":"Nextere Payment","bank_code":"014","service_id":"21680742116712639","channel_type":"WEBSITE","cust_id":"C1634202073","amount":"168","currency":"THB","ref_1":"Reference1","redirect_urls":{"url_success":"https:\/\/www.nextere.space\/Product\/Bill","url_fail":"https:\/\/www.nextere.space\/Product\/Bill_fail"}} 
2021-10-14 16:01:13||create||output={"order_id":"1634202073","amount":168.0,"amount_net":168.0,"amount_cust_fee":0.0,"txn_id":"T2128716041414720518","status":"PENDING","message":"success","currency":"THB","authorize_url":"https://api.stg-paymentgateway.ais.co.th/stg/service-txn-gateway/v1/internet-banking/RgAGK3z_6H_1SSSQATjvWlcoDbCycmI3Bg26tJeuSWfjRG9ThMnqZNXu7uOvC-caMAzFYWQWMlr3u0V84FefWw==/payment"} 
